field,type,description
Encashment Date,date,Date when the political parties encashed the donation
Party,string,"Short name for the political party. Possible values are: 'AIADMK', 'BRS', 'BJP', 'Congress', 'SS', 'TDP', 'YSRCP', 'DMK', 'JDS', 'NCP', 'AITMC', 'JDU', 'RJD', 'AAP', 'SP', 'SAD', 'JMM', 'JKNC', 'BJD', 'SS1', 'NCP1'"
Party Name,string,"Name of the political parties. Possible party names are: 'ALL INDIA ANNA DRAVIDA MUNNETRA KAZHAGAM', 'BHARAT RASHTRA SAMITHI', 'BHARTIYA JANTA PARTY', 'PRESIDENT, ALL INDIA CONGRESS COMMITTEE', 'SHIVSENA (POLITICAL PARTY)', 'TELUGU DESAM PARTY', 'YSR CONGRESS PARTY (YUVAJANA SRAMIKA R', 'DMK PARTY IN PARLIAMENT', 'JANATA DAL ( SECULAR )', 'NATIONALIST CONGRESS PARTY PARLIAMENT OF', 'ALL INDIA TRINAMOOL CONGRESS', 'BIHAR PRADESH JANTA DAL(UNITED)', 'RASTRIYA JANTA DAL', 'AAM AADMI PARTY', 'ADYAKSHA SAMAJVADI PARTY', 'SHIROMANI AKALI DAL', 'JHARKHAND MUKTI MORCHA', 'JAMMU AND KASHMIR NATIONAL CONFERENCE', 'BIJU JANATA DAL', 'SHIVSENA', 'NATIONALIST CONGRESS PARTY MAHARASHTRA PRADESH'"
Denomination,int64,Amount of donation in the form of electoral bonds in India Rupees
